/* XPM */
static char *v361[] = {
/* columns rows colors chars-per-pixel */
"36 36 2 1",
"  c black s foreground",
". c None s background",
/* pixels */
"....................................",
"....................................",
"....................................",
"....................................",
"....................................",
"....................................",
"....................................",
".............. .....................",
".............  .....................",
"............   .....................",
"...........    .....................",
"..........     .....................",
".........      .....................",
"...            .....................",
"...            .....................",
"...            .....................",
"...            .....................",
"...            .....................",
"...            .....................",
"...            .....................",
"...            .....................",
"...            .....................",
"...            .....................",
".........      .....................",
"..........     .....................",
"...........    .....................",
"............   .....................",
".............  .....................",
".............. .....................",
"....................................",
"....................................",
"....................................",
"....................................",
"....................................",
"....................................",
"...................................."
};
